<svg width="180" height="144" viewBox="0 0 180 144" fill="none" xmlns="http://www.w3.org/2000/svg">
<g clip-path="url(#clip0)">
<path d="M72.5572 76.7731L17.8982 131.432C15.262 134.068 10.9882 134.068 8.35228 131.432L1.97691 125.057C-0.65475 122.425 -0.659812 118.16 1.96566 115.522L45.2843 72L1.96594 28.478C-0.659531 25.8401 -0.654468 21.575 1.97719 18.9433L8.35228 12.5682C10.9884 9.93209 15.2623 9.93209 17.8982 12.5682L72.5572 67.2272C75.1933 69.8631 75.1933 74.137 72.5572 76.7731ZM180 128.25V119.25C180 115.522 176.978 112.5 173.25 112.5H87.75C84.022 112.5 81 115.522 81 119.25V128.25C81 131.978 84.022 135 87.75 135H173.25C176.978 135 180 131.978 180 128.25Z" fill="white"/>
</g>
<defs>
<clipPath id="clip0">
<rect width="180" height="144" fill="white"/>
</clipPath>
</defs>
</svg>
